Тест 02040. Вывод. Выполнимый
Вывод констант:
0
1
3.5
35.0
350000.0
3.5e+06
3.5e+07
1.23456
1.234567
1.234568
0.0001
1e-05
2e-05
9e-05
9.9e-05
1e-04
1e-04
1e-04
1e-05
123456789
1.23e+10
1.23e+29
0
-1
-3.5
-35.0
-350000.0
-3.5e+06
-3.5e+07
-1.23456
-1.234567
-1.234568
-0.0001
-1e-05
-2e-05
-9e-05
-9.9e-05
-1e-04
-1e-04
-1e-04
-1e-05
-123456789
-1.23e+10
-1.23e+29
да
нет

с
строка
Очень_длинная_строка
Очень_длинная_строкаОчень_длинная_строкаОчень_длинная_строкаОчень_длинная_строкаОчень_длинная_строкаОчень_длинная_строкаОчень_длинная_строкаОчень_длинная_строкаОчень_длинная_строкаОчень_длинная_строкаОчень_длинная_строкаОчень_длинная_строкаОчень_длинная_строкаОчень_длинная_строкаОчень_длинная_строкаОчень_длинная_строкаОчень_длинная_строкаОчень_длинная_строкаОчень_длинная_строкаОчень_длинная_строкаОчень_длинная_строкаОчень_длинная_строкаОчень_длинная_строка
Выражения:
0
1e-06
да
аб
123456789 :0000123456789

r=-0.0 r=0.0
r=1.0 r=1.0
r=-1.0 r=-1.0
r=.0 r=0.0
r=-.0 r=0.0
r=0.1 r=0.1
r=-0.1 r=-0.1
r=1.1 r=1.1
r=-1.1 r=-1.1
r=.1 r=0.1
r=-.1 r=-0.1
r=0. r=0.0
r=-0. r=0.0
r=1. r=1.0
r=-1. r=-1.0
r=0.0 r=0.0
OK

x=-0.0E0, x=0.0
x=1.0E0, x=1.0
x=-1.0E0, x=-1.0
x=.0E0, x=0.0
x=-.0E0, x=0.0
x=0.1E0, x=0.1
x=-0.1E0, x=-0.1
x=1.1E0, x=1.1
x=-1.1E0, x=-1.1
x=.1E0, x=0.1
x=-1E0, x=-0.1
x=0.E0, x=0.0
x=-0.E0, x=0.0
x=1.E0, x=1.0
x=-1.E0, x=-1.0
x=0.0E-0, x=0.0
x=-0.0E-0, x=0.0
x=-1.1E-0, x=-1.1
x=-1.E-0, x=-1.0
x=-.1E1, x=-1.0
OK

Подсчет суммы и произведения последовательности
1.0 -1.1 0.0009 -0.9 1001 
Сумма=1000.0009 Произведение=0.891891
Сумма=1000.0009 Произведение=0.891891
Сумма=1000.0009 Произведение=0.891891

Вещественные числа
99999.0
99999.0
99998.99999
99998.99
99998.9
1e+06
199998.9
0.0001
0.000123
0.000123
1e-05
1e-39
1.23e-39
1e-45
2e-46

Вещественные в экп. записи
10000.0
100000.0
1e+06
0.0001
1e-05
1e-06
1.23e+10
-1.23e-10
1e-45
1.23e-40
1.23e-41
1.23e-42
1.23e-43
1.23e-44
1.23e-45
1.23e-46

Буква: А код заглавной: 1040 код строчной: 1072
Буква: Б код заглавной: 1041 код строчной: 1073
Буква: В код заглавной: 1042 код строчной: 1074
Буква: Г код заглавной: 1043 код строчной: 1075
Буква: Д код заглавной: 1044 код строчной: 1076
Буква: Е код заглавной: 1045 код строчной: 1077
Буква: Ж код заглавной: 1046 код строчной: 1078
Буква: З код заглавной: 1047 код строчной: 1079
Буква: И код заглавной: 1048 код строчной: 1080
Буква: Й код заглавной: 1049 код строчной: 1081
Буква: К код заглавной: 1050 код строчной: 1082
Буква: Л код заглавной: 1051 код строчной: 1083
Буква: М код заглавной: 1052 код строчной: 1084
Буква: Н код заглавной: 1053 код строчной: 1085
Буква: О код заглавной: 1054 код строчной: 1086
Буква: П код заглавной: 1055 код строчной: 1087
Буква: Р код заглавной: 1056 код строчной: 1088
Буква: С код заглавной: 1057 код строчной: 1089
Буква: Т код заглавной: 1058 код строчной: 1090
Буква: У код заглавной: 1059 код строчной: 1091
Буква: Ф код заглавной: 1060 код строчной: 1092
Буква: Х код заглавной: 1061 код строчной: 1093
Буква: Ц код заглавной: 1062 код строчной: 1094
Буква: Ч код заглавной: 1063 код строчной: 1095
Буква: Ш код заглавной: 1064 код строчной: 1096
Буква: Щ код заглавной: 1065 код строчной: 1097
Буква: Ь код заглавной: 1068 код строчной: 1100
Буква: Ы код заглавной: 1067 код строчной: 1099
Буква: Ъ код заглавной: 1066 код строчной: 1098
Буква: Э код заглавной: 1069 код строчной: 1101
Буква: Ю код заглавной: 1070 код строчной: 1102
Буква: Я код заглавной: 1071 код строчной: 1103
Буква: Ё код заглавной: 1025 код строчной: 1105
Буква: Α код заглавной: 913 код строчной: 945
Буква: Β код заглавной: 914 код строчной: 946
Буква: Γ код заглавной: 915 код строчной: 947
Буква: Δ код заглавной: 916 код строчной: 948
Буква: Π код заглавной: 928 код строчной: 960
Тест 02040-010 завершен
